{
  "title": "Account Application",
  "formProcessor": "new-application",
  "initialModal": "new-application-terms",
  "supportsSaveAndContinue": false,
  "onSuccess": {
    "name": "complete-application",
    "type": "form"
  },
  "pages": [
    {
      "page": 1,
      "subtitle": "Pre-Screening",
      "description": "Please complete the form below to see if you are eligible for an MRP Money account.",
      "sections": [
        {
          "title": "Application Information",
          "components": [
            [
              {
                "type": "repayment_period",
                "title": "Repayment Period"
              }
            ]
          ]
        },
        {
          "title": "Basic Information",
          "components": [
            [
              {
                "type": "text",
                "title": "First Name",
                "name": { "name": "FirstName", "type":  "string" }
              },
              {
                "type": "text",
                "title": "Middle Name",
                "name": { "name": "FirstName2", "type": "string" },
                "required":  false
              }
            ],
            [
              {
                "type": "text",
                "title": "Surname",
                "name": { "name": "Surname", "type":  "string" }
              }
            ],
            [
              {
                "type": "dropdown",
                "title": "Identity Type",
                "name": { "name": "IdentityTypeId", "type":  "int" },
                "optionsLookUp": "IdentityTypes"
              },
              {
                "type": "text",
                "title": "Identity/Passport Number",
                "name": { "name": "IdentityNumber", "type":  "string" }
              }
            ],
            [
              {
                "type": "dropdown",
                "title": "Title",
                "name": { "name": "TitleId", "type":  "int" },
                "optionsLookUp": "Titles"
              },
              {
                "type": "dropdown",
                "title": "Gender",
                "name": { "name": "GenderId", "type":  "int" },
                "optionsLookUp": "Genders"
              }
            ],
            [
              {
                "type": "date",
                "title": "Date of Birth",
                "name": { "name": "DateOfBirth", "type":  "date" }
              },
              {
                "type": "phone",
                "title": "Mobile Number",
                "name": { "name": "CellphoneNumber", "type":  "string" }
              }
            ]
          ]
        },
        {
          "title": "Employment Information",
          "components": [
            [
              {
                "type": "money",
                "title": "Gross Monthly Salary",
                "name": { "name": "GrossMonthlyIncome", "type":  "float" }
              }
            ],
            [
              {
                "type": "text",
                "title": "Employer Name",
                "name": { "name": "EmployerName", "type":  "string" }
              },
              {
                "type": "dropdown",
                "title": "Occupation",
                "name": { "name": "OccupationId", "type":  "int" },
                "optionsLookUp": "Occupation"
              }
            ],
            [
              {
                "type": "timeperiod",
                "title": "Employment Period",
                "name": { "name": "EmploymentPeriod", "type":  "string" }
              }
            ]
          ]
        },
        {
          "components": [
            [
              {
                "type": "button",
                "title": "Submit",
                "action": "submit"
              }
            ]
          ]
        }
      ]
    }
  ]
}
