{
  "TemporaryInitialState": {
    "DivisionId": {
      "type": "int",
      "value": "1"
    },
    "RepaymentPeriodId": {
      "type": "int",
      "value": "2"
    },
    "EmployerName": {
      "type": "string",
      "value": "Telkom"
    },
    "CellphoneNumber": {
      "type": "string",
      "value": "0795988541"
    },
    "DateOfBirth": {
      "type": "date",
      "value": "1995-02-28"
    },
    "EmploymentPeriod": {
      "type": "string",
      "value": "0"
    },
    "FirstName": {
      "type": "string",
      "value": "THABISO"
    },
    "FirstName2": {
      "type": "string",
      "value": "MACHET"
    },
    "GenderId": {
      "type": "int",
      "value": "2"
    },
    "GrossMonthlyIncome": {
      "type": "float",
      "value": "4700"
    },
    "IdentityNumber": {
      "type": "string",
      "value": "7601295125080"
    },
    "IdentityTypeId": {
      "type": "int",
      "value": "8"
    },
    "Surname": {
      "type": "string",
      "value": "WIEMANN"
    },
    "TitleId": {
      "type": "int",
      "value": "15"
    },
    "OccupationId": {
      "type": "int",
      "value": "611"
    }
  }
}
